work/simulate.log

****** xsim v2025.2 (64-bit)
  **** SW Build 6299465 on Fri Nov 14 12:34:56 MST 2025
  **** IP Build 6300035 on Fri Nov 14 10:48:45 MST 2025
  **** SharedData Build 6298862 on Thu Nov 13 04:50:51 MST 2025
  **** Start of session at: Sun Feb 15 10:44:45 2026
    ** Copyright 1986-2022 Xilinx, Inc. All Rights Reserved.
    ** Copyright 2022-2025 Advanced Micro Devices, Inc. All Rights Reserved.

source xsim.dir/top_tb_snap/xsim_script.tcl
# xsim {top_tb_snap} -autoloadwcfg -runall
Time resolution is 1 ps
run -all
--------------------------------------------------
DEBUG MEMORIA: Carregando arquivo 'test_prog.mem'
DEBUG MEMORIA: instrmem[0] = 00500093
DEBUG MEMORIA: instrmem[1] = 00500113
--------------------------------------------------
=== Iniciando Simulacao do Processador RISC-V ===
Time: 25000 | PC: 00000000 | Instr: 00500093 | ALU Res: 00000005 | WriteData: xxxxxxxx | MemWrite: 0
Time: 35000 | PC: 00000004 | Instr: 00500113 | ALU Res: 00000005 | WriteData: xxxxxxxx | MemWrite: 0
Time: 45000 | PC: 00000008 | Instr: 00208663 | ALU Res: 00000000 | WriteData: 00000005 | MemWrite: 0
Time: 55000 | PC: 00000014 | Instr: 00700213 | ALU Res: 00000007 | WriteData: xxxxxxxx | MemWrite: 0
Time: 65000 | PC: 00000018 | Instr: 00000013 | ALU Res: 00000000 | WriteData: 00000000 | MemWrite: 0
Time: 75000 | PC: 0000001c | Instr: 00000013 | ALU Res: 00000000 | WriteData: 00000000 | MemWrite: 0
Time: 85000 | PC: 00000020 | Instr: xxxxxxxx | ALU Res: xxxxxxxx | WriteData: xxxxxxxx | MemWrite: 0
Time: 95000 | PC: 00000024 | Instr: xxxxxxxx | ALU Res: xxxxxxxx | WriteData: xxxxxxxx | MemWrite: 0
Time: 105000 | PC: 00000028 | Instr: xxxxxxxx | ALU Res: xxxxxxxx | WriteData: xxxxxxxx | MemWrite: 0
Time: 115000 | PC: 0000002c | Instr: xxxxxxxx | ALU Res: xxxxxxxx | WriteData: xxxxxxxx | MemWrite: 0
Time: 125000 | PC: 00000030 | Instr: xxxxxxxx | ALU Res: xxxxxxxx | WriteData: xxxxxxxx | MemWrite: 0
Time: 135000 | PC: 00000034 | Instr: xxxxxxxx | ALU Res: xxxxxxxx | WriteData: xxxxxxxx | MemWrite: 0
Time: 145000 | PC: 00000038 | Instr: xxxxxxxx | ALU Res: xxxxxxxx | WriteData: xxxxxxxx | MemWrite: 0
Time: 155000 | PC: 0000003c | Instr: xxxxxxxx | ALU Res: xxxxxxxx | WriteData: xxxxxxxx | MemWrite: 0
Time: 165000 | PC: 00000040 | Instr: xxxxxxxx | ALU Res: xxxxxxxx | WriteData: xxxxxxxx | MemWrite: 0
Time: 175000 | PC: 00000044 | Instr: xxxxxxxx | ALU Res: xxxxxxxx | WriteData: xxxxxxxx | MemWrite: 0
Time: 185000 | PC: 00000048 | Instr: xxxxxxxx | ALU Res: xxxxxxxx | WriteData: xxxxxxxx | MemWrite: 0
Time: 195000 | PC: 0000004c | Instr: xxxxxxxx | ALU Res: xxxxxxxx | WriteData: xxxxxxxx | MemWrite: 0
Time: 205000 | PC: 00000050 | Instr: xxxxxxxx | ALU Res: xxxxxxxx | WriteData: xxxxxxxx | MemWrite: 0
Time: 215000 | PC: 00000054 | Instr: xxxxxxxx | ALU Res: xxxxxxxx | WriteData: xxxxxxxx | MemWrite: 0
=== Simulacao Finalizada ===
$finish called at time : 220 ns : File "/home/jose/Área de trabalho/bare_riscv/tb/sanity/top_tb.sv" Line 31
exit
INFO: xsimkernel Simulation Memory Usage: 277132 KB (Peak: 334404 KB), Simulation CPU Usage: 1430 ms
INFO: [Common 17-206] Exiting xsim at Sun Feb 15 10:44:48 2026...
